{
	"info": {
		"_postman_id": "00bf997c-2af9-4e6a-a3c5-459b6f8fa1af",
		"name": "S36-S41",
		"schema": "https://schema.getpostman.com/json/collection/v2.1.0/collection.json"
	},
	"item": [
		{
			"name": "CHECK EMAIL",
			"request": {
				"method": "POST",
				"header": [],
				"body": {
					"mode": "raw",
					"raw": "{\r\n    \"email\": \"john@mail.com\"\r\n}",
					"options": {
						"raw": {
							"language": "json"
						}
					}
				},
				"url": {
					"raw": "localhost:4000/users/checkemail",
					"host": [
						"localhost"
					],
					"port": "4000",
					"path": [
						"users",
						"checkemail"
					]
				}
			},
			"response": []
		},
		{
			"name": "REGISTER USER",
			"request": {
				"method": "POST",
				"header": [],
				"body": {
					"mode": "raw",
					"raw": "{\r\n    \"firstName\": \"Admin\",\r\n    \"lastName\": \"Admin\",\r\n    \"email\": \"meljohn@mail.com\",\r\n    \"mobileNo\": \"098123123\",\r\n    \"password\": \"admin\",\r\n    \"isAdmin\": true\r\n}",
					"options": {
						"raw": {
							"language": "json"
						}
					}
				},
				"url": {
					"raw": "localhost:4000/users/register",
					"host": [
						"localhost"
					],
					"port": "4000",
					"path": [
						"users",
						"register"
					]
				}
			},
			"response": []
		},
		{
			"name": "USER AUTH",
			"request": {
				"auth": {
					"type": "noauth"
				},
				"method": "POST",
				"header": [],
				"body": {
					"mode": "raw",
					"raw": "{\r\n    \"email\": \"meljohn@mail.com\",\r\n    \"password\": \"meljohn\"\r\n}",
					"options": {
						"raw": {
							"language": "json"
						}
					}
				},
				"url": {
					"raw": "localhost:4000/users/login",
					"host": [
						"localhost"
					],
					"port": "4000",
					"path": [
						"users",
						"login"
					]
				}
			},
			"response": []
		},
		{
			"name": "GET USER DETAILS",
			"request": {
				"auth": {
					"type": "bearer",
					"bearer": [
						{
							"key": "token",
							"value": "eyJhbGciOiJIUzI1NiIsInR5cCI6IkpXVCJ9.eyJpZCI6IjYzYzdiNTA3OGEzMGZjNTMxMDJkZjk1ZiIsImVtYWlsIjoibWVsQG1haWwuY29tIiwiaXNBZG1pbiI6ZmFsc2UsImlhdCI6MTY3NDA5MzIwOX0.KfIhojUcfcbMn_csZfoARlt8-xZ1aOnUwyRa4RAguBk",
							"type": "string"
						}
					]
				},
				"method": "POST",
				"header": [
					{
						"key": "",
						"value": "",
						"type": "default"
					}
				],
				"body": {
					"mode": "raw",
					"raw": "{\r\n    \"id\": \"63c7a8296964e471b3fb7c18\"\r\n}",
					"options": {
						"raw": {
							"language": "json"
						}
					}
				},
				"url": {
					"raw": "localhost:4000/users/details",
					"host": [
						"localhost"
					],
					"port": "4000",
					"path": [
						"users",
						"details"
					]
				}
			},
			"response": []
		},
		{
			"name": "CREATE A COURSE",
			"request": {
				"auth": {
					"type": "bearer",
					"bearer": [
						{
							"key": "token",
							"value": "eyJhbGciOiJIUzI1NiIsInR5cCI6IkpXVCJ9.eyJpZCI6IjYzYzg4Zjg5NjEzODI4MDA5YTM2Nzg4YSIsImVtYWlsIjoibWVsam9obkBtYWlsLmNvbSIsImlzQWRtaW4iOnRydWUsImlhdCI6MTY3NDEwNjc3MH0.USdCWadrKiVpi30YDPJVfwKVsBSh7IZ2biFzTF5Kfeo",
							"type": "string"
						}
					]
				},
				"method": "POST",
				"header": [],
				"body": {
					"mode": "raw",
					"raw": "{\r\n    \"name\": \"Magic 1033\",\r\n    \"description\": \"learn how to be a magician in 12 days\",\r\n    \"price\": 5000\r\n}",
					"options": {
						"raw": {
							"language": "json"
						}
					}
				},
				"url": {
					"raw": "localhost:4000/courses",
					"host": [
						"localhost"
					],
					"port": "4000",
					"path": [
						"courses"
					]
				}
			},
			"response": []
		},
		{
			"name": "RETRIEVE ALL COURSES",
			"protocolProfileBehavior": {
				"disableBodyPruning": true
			},
			"request": {
				"method": "GET",
				"header": [],
				"body": {
					"mode": "raw",
					"raw": ""
				},
				"url": {
					"raw": "localhost:4000/courses/all",
					"host": [
						"localhost"
					],
					"port": "4000",
					"path": [
						"courses",
						"all"
					]
				}
			},
			"response": []
		},
		{
			"name": "ALL ACTIVE COURSES",
			"request": {
				"method": "GET",
				"header": [],
				"url": {
					"raw": "localhost:4000/courses/",
					"host": [
						"localhost"
					],
					"port": "4000",
					"path": [
						"courses",
						""
					]
				}
			},
			"response": []
		},
		{
			"name": "GET A COURSE",
			"request": {
				"method": "GET",
				"header": [],
				"url": {
					"raw": "localhost:4000/courses/63c8d86838907144775809a3",
					"host": [
						"localhost"
					],
					"port": "4000",
					"path": [
						"courses",
						"63c8d86838907144775809a3"
					]
				}
			},
			"response": []
		},
		{
			"name": "UPDATE A COURSE",
			"request": {
				"auth": {
					"type": "bearer",
					"bearer": [
						{
							"key": "token",
							"value": "eyJhbGciOiJIUzI1NiIsInR5cCI6IkpXVCJ9.eyJpZCI6IjYzYzg4Zjg5NjEzODI4MDA5YTM2Nzg4YSIsImVtYWlsIjoibWVsam9obkBtYWlsLmNvbSIsImlzQWRtaW4iOnRydWUsImlhdCI6MTY3NDExNDA4MX0.Bxu9P8QJEVoZzr0duHkvQWHP7iFUA35Hffa9UfUkubw",
							"type": "string"
						}
					]
				},
				"method": "PUT",
				"header": [],
				"body": {
					"mode": "raw",
					"raw": "{\r\n    \"name\": \"Magic 999\",\r\n    \"description\": \"learn how to make a chair in three weeks\",\r\n    \"price\": 999\r\n}",
					"options": {
						"raw": {
							"language": "json"
						}
					}
				},
				"url": {
					"raw": "localhost:4000/courses/63c8cc922b263cfbda3cc98a",
					"host": [
						"localhost"
					],
					"port": "4000",
					"path": [
						"courses",
						"63c8cc922b263cfbda3cc98a"
					]
				}
			},
			"response": []
		},
		{
			"name": "ARCHIVE COURSE",
			"request": {
				"auth": {
					"type": "bearer",
					"bearer": [
						{
							"key": "token",
							"value": "eyJhbGciOiJIUzI1NiIsInR5cCI6IkpXVCJ9.eyJpZCI6IjYzYzg4Zjg5NjEzODI4MDA5YTM2Nzg4YSIsImVtYWlsIjoibWVsam9obkBtYWlsLmNvbSIsImlzQWRtaW4iOnRydWUsImlhdCI6MTY3NDExNTYzNX0._neX_mJG-XlCB72vfKwPAOqcXmpClTtNXCtFiOK4pZc",
							"type": "string"
						}
					]
				},
				"method": "PUT",
				"header": [],
				"body": {
					"mode": "raw",
					"raw": "{\r\n    \"isActive\": false\r\n}",
					"options": {
						"raw": {
							"language": "json"
						}
					}
				},
				"url": {
					"raw": "localhost:4000/courses/63c8b454516ab48de85f1a62/archive",
					"host": [
						"localhost"
					],
					"port": "4000",
					"path": [
						"courses",
						"63c8b454516ab48de85f1a62",
						"archive"
					]
				}
			},
			"response": []
		},
		{
			"name": "ENROLL A USER",
			"request": {
				"auth": {
					"type": "bearer",
					"bearer": [
						{
							"key": "token",
							"value": "eyJhbGciOiJIUzI1NiIsInR5cCI6IkpXVCJ9.eyJpZCI6IjYzYzg4Zjg5NjEzODI4MDA5YTM2Nzg4YSIsImVtYWlsIjoibWVsam9obkBtYWlsLmNvbSIsImlzQWRtaW4iOnRydWUsImlhdCI6MTY3NDE4MjI1OH0.wIOIblvCJcwY8GnxKSsTGtLhIQEHDc3Q6XNOIr5SqOM",
							"type": "string"
						}
					]
				},
				"method": "POST",
				"header": [],
				"body": {
					"mode": "raw",
					"raw": "{\r\n    \"courseId\": \"63c8b454516ab48de85f1a62\"\r\n}",
					"options": {
						"raw": {
							"language": "json"
						}
					}
				},
				"url": {
					"raw": "localhost:4000/users/enroll",
					"host": [
						"localhost"
					],
					"port": "4000",
					"path": [
						"users",
						"enroll"
					]
				}
			},
			"response": []
		}
	]
}